{
    "data": [
      {
        "id": 55844212,
        "profile_id": 670232829,
        "_data": "{\"data\": \"Dozzer1548!\"}",
        "created": "2025-05-31T17:03:17+00:00",
        "object_id": 31872096,
        "object_type": "news_feed",
        "profile_username": "Wtfisthiscolrlol",
        "images": {
          "micro": "https://www.kogstatic.com/placeholder/blockboy_micro_18x18.jpg",
          "small": "https://www.kogstatic.com/placeholder/blockboy_small_46x46.jpg",
          "medium": "https://www.kogstatic.com/placeholder/blockboy_medium_64x64.jpg",
          "large": "https://www.kogstatic.com/placeholder/blockboy_large_330x451.jpg"
        },
        "avatar_id": 32260508,
        "is_subscriber": false,
        "can_delete": true
      },
      {
        "id": 55844211,
        "profile_id": 670232829,
        "_data": "{\"data\": \"Dozzer1548!\"}",
        "created": "2025-05-31T17:03:11+00:00",
        "object_id": 31872096,
        "object_type": "news_feed",
        "profile_username": "Wtfisthiscolrlol",
        "images": {
          "micro": "https://www.kogstatic.com/placeholder/blockboy_micro_18x18.jpg",
          "small": "https://www.kogstatic.com/placeholder/blockboy_small_46x46.jpg",
          "medium": "https://www.kogstatic.com/placeholder/blockboy_medium_64x64.jpg",
          "large": "https://www.kogstatic.com/placeholder/blockboy_large_330x451.jpg"
        },
        "avatar_id": 32260508,
        "is_subscriber": false,
        "can_delete": true
      },
      {
        "id": 55844209,
        "profile_id": 670232829,
        "_data": "{\"data\": \"Dozzer1548!\"}",
        "created": "2025-05-31T17:02:36+00:00",
        "object_id": 31872096,
        "object_type": "news_feed",
        "profile_username": "Wtfisthiscolrlol",
        "images": {
          "micro": "https://www.kogstatic.com/placeholder/blockboy_micro_18x18.jpg",
          "small": "https://www.kogstatic.com/placeholder/blockboy_small_46x46.jpg",
          "medium": "https://www.kogstatic.com/placeholder/blockboy_medium_64x64.jpg",
          "large": "https://www.kogstatic.com/placeholder/blockboy_large_330x451.jpg"
        },
        "avatar_id": 32260508,
        "is_subscriber": false,
        "can_delete": true
      },
      {
        "id": 55844201,
        "profile_id": 670232829,
        "_data": "{\"data\": \"Dozzer1548!\"}",
        "created": "2025-05-31T16:59:54+00:00",
        "object_id": 31872096,
        "object_type": "news_feed",
        "profile_username": "Wtfisthiscolrlol",
        "images": {
          "micro": "https://www.kogstatic.com/placeholder/blockboy_micro_18x18.jpg",
          "small": "https://www.kogstatic.com/placeholder/blockboy_small_46x46.jpg",
          "medium": "https://www.kogstatic.com/placeholder/blockboy_medium_64x64.jpg",
          "large": "https://www.kogstatic.com/placeholder/blockboy_large_330x451.jpg"
        },
        "avatar_id": 32260508,
        "is_subscriber": false,
        "can_delete": true
      },
      {
        "id": 55844192,
        "profile_id": 670232829,
        "_data": "{\"data\": \"Dozzer1548!\"}",
        "created": "2025-05-31T16:58:36+00:00",
        "object_id": 31872096,
        "object_type": "news_feed",
        "profile_username": "Wtfisthiscolrlol",
        "images": {
          "micro": "https://www.kogstatic.com/placeholder/blockboy_micro_18x18.jpg",
          "small": "https://www.kogstatic.com/placeholder/blockboy_small_46x46.jpg",
          "medium": "https://www.kogstatic.com/placeholder/blockboy_medium_64x64.jpg",
          "large": "https://www.kogstatic.com/placeholder/blockboy_large_330x451.jpg"
        },
        "avatar_id": 32260508,
        "is_subscriber": false,
        "can_delete": true
      },
      {
        "id": 55844191,
        "profile_id": 670232829,
        "_data": "{\"data\": \"Dozzer1548!\"}",
        "created": "2025-05-31T16:58:34+00:00",
        "object_id": 31872096,
        "object_type": "news_feed",
        "profile_username": "Wtfisthiscolrlol",
        "images": {
          "micro": "https://www.kogstatic.com/placeholder/blockboy_micro_18x18.jpg",
          "small": "https://www.kogstatic.com/placeholder/blockboy_small_46x46.jpg",
          "medium": "https://www.kogstatic.com/placeholder/blockboy_medium_64x64.jpg",
          "large": "https://www.kogstatic.com/placeholder/blockboy_large_330x451.jpg"
        },
        "avatar_id": 32260508,
        "is_subscriber": false,
        "can_delete": true
      },
      {
        "id": 55844190,
        "profile_id": 670232829,
        "_data": "{\"data\": \"Dozzer1548!\"}",
        "created": "2025-05-31T16:58:13+00:00",
        "object_id": 31872096,
        "object_type": "news_feed",
        "profile_username": "Wtfisthiscolrlol",
        "images": {
          "micro": "https://www.kogstatic.com/placeholder/blockboy_micro_18x18.jpg",
          "small": "https://www.kogstatic.com/placeholder/blockboy_small_46x46.jpg",
          "medium": "https://www.kogstatic.com/placeholder/blockboy_medium_64x64.jpg",
          "large": "https://www.kogstatic.com/placeholder/blockboy_large_330x451.jpg"
        },
        "avatar_id": 32260508,
        "is_subscriber": false,
        "can_delete": true
      },
      {
        "id": 55844185,
        "profile_id": 670232829,
        "_data": "{\"data\": \"Dozzer1548!\"}",
        "created": "2025-05-31T16:57:27+00:00",
        "object_id": 31872096,
        "object_type": "news_feed",
        "profile_username": "Wtfisthiscolrlol",
        "images": {
          "micro": "https://www.kogstatic.com/placeholder/blockboy_micro_18x18.jpg",
          "small": "https://www.kogstatic.com/placeholder/blockboy_small_46x46.jpg",
          "medium": "https://www.kogstatic.com/placeholder/blockboy_medium_64x64.jpg",
          "large": "https://www.kogstatic.com/placeholder/blockboy_large_330x451.jpg"
        },
        "avatar_id": 32260508,
        "is_subscriber": false,
        "can_delete": true
      },
      {
        "id": 55844022,
        "profile_id": 670232829,
        "_data": "{\"data\": \"Dozzer1548!\"}",
        "created": "2025-05-31T16:18:23+00:00",
        "object_id": 31872096,
        "object_type": "news_feed",
        "profile_username": "Wtfisthiscolrlol",
        "images": {
          "micro": "https://www.kogstatic.com/placeholder/blockboy_micro_18x18.jpg",
          "small": "https://www.kogstatic.com/placeholder/blockboy_small_46x46.jpg",
          "medium": "https://www.kogstatic.com/placeholder/blockboy_medium_64x64.jpg",
          "large": "https://www.kogstatic.com/placeholder/blockboy_large_330x451.jpg"
        },
        "avatar_id": 32260508,
        "is_subscriber": false,
        "can_delete": true
      },
      {
        "id": 55718581,
        "profile_id": 670351929,
        "_data": "{\"data\": \"iloveplotagon\"}",
        "created": "2025-04-27T23:59:39+00:00",
        "object_id": 31872096,
        "object_type": "news_feed",
        "profile_username": "Boris Jacob Anderson",
        "images": {
          "original": "https://www.kogstatic.com/gen_images/6d/2c/6d2c29cf-12fd-46a8-a7e6-87802f4e3328.png",
          "micro": "https://www.kogstatic.com/gen_cache/6d/2c/6d2c29cf-12fd-46a8-a7e6-87802f4e3328_18x18.png",
          "small": "https://www.kogstatic.com/gen_cache/6d/2c/6d2c29cf-12fd-46a8-a7e6-87802f4e3328_46x46.png",
          "medium": "https://www.kogstatic.com/gen_cache/6d/2c/6d2c29cf-12fd-46a8-a7e6-87802f4e3328_64x64.png",
          "large": "https://www.kogstatic.com/gen_cache/6d/2c/6d2c29cf-12fd-46a8-a7e6-87802f4e3328_330x451.png"
        },
        "avatar_id": 32412509,
        "is_subscriber": false,
        "can_delete": false
      }
    ],
    "paging": {
      "count": 10,
      "total": 11,
      "prev_url": "",
      "next_url": "/api/feed/31872096/comment/?page=2&count=10",
      "page": 1,
      "pages": 2,
      "paging_links": [
        {
          "url": "/api/feed/31872096/comment/?page=1&count=10",
          "title": "1",
          "is_link": true,
          "is_current": true
        },
        {
          "url": "/api/feed/31872096/comment/?page=2&count=10",
          "title": "2",
          "is_link": true,
          "is_current": false
        }
      ]
    }
  }